Using Steamdb to Find Trends in PC Gaming
…
# Now, lets clean up the gathered data.

# Remove the first two rows, as this just shows the concurrent players for the Steam platform itself, along with an "initalizing..." row. This is not the sort of data we want, we just want info on the games itself. 
steam_db_table_graph<-steam_db_table_graph %>%
  slice(3:n())

# Remove the "expand" column, as it is also useless information. We can use the select diplyr command to remove a specific column when using the '-' operator against the column name.
steam_db_table_graph <- steam_db_table_graph %>% 
  select(-"expand")

# Output dataframe for Step 1.
steam_db_table_graph

## # A tibble: 1,663 x 5
##    appId  name            currentPlayers `24hrPeakPlayer maxConcurrentPla
##    <chr>  <chr>           <chr>          <chr>            <chr>            
##  1 570    Dota 2          562,989        847,257          1,295,114        
##  2 730    Counter-Strike 504,026        507,507          854,801          
##  3 578080 PLAYERUNKNOWN' 276,538        722,994          3,257,248        
##  4 359550 Tom Clancy's R 66,529         94,894           178,953          
##  5 271590 Grand Theft Au 60,315         79,074           364,548          
##  6 872790 Football Manag 58,422         62,211           74,726           
##  7 252950 Rocket League   52,769         56,197           103,129          
##  8 440    Team Fortress 2 45,206         45,706           122,938          
##  9 230410 Warframe        41,271         53,170           132,201          
## 10 252490 Rust            39,501         43,791           85,218           
## #  with 1,653 more rows
…
# Now, lets clean up the gathered data.

# Remove the first row, as this just shows "Initializing table You must have JavaScript enabled." Obviously, this not a valid entry.
steam_db_table_twitch <- steam_db_table_twitch %>%
  slice(2:n()) %>%
# We also again, want to remove the entity "Steam", as this is the platform, and not an actual videogame.
  subset(name!="Steam")

# Remove the "expand" column, as it is also useless information. We can use the select diplyr command to remove a specific column when using the '-' operator against the column name.

# Output dataframe for Step 1.
steam_db_table_twitch

## # A tibble: 11,722 x 4
##    name                 currentViewers `24hrPeakViewer twitchSteamPlayers
##    <chr>                <chr>          <chr>            <chr>              
##  1 Counter-Strike       145            167              14,073             
##  2 Team Fortress Class 0              11               57                 
##  3 Day of Defeat        0              1                114                
##  4 Deathmatch Classic   0              2                1                  
##  5 Half-Life: Opposing 0              136              50                 
##  6 Ricochet             0              1                1                  
##  7 Half-Life            32             37               372                
##  8 Counter-Strike: Con 2              2                641                
##  9 Half-Life: Blue Shi 0              5                29                 
## 10 Half-Life 2          38             41               598                
## #  with 11,712 more rows
…
# Remove the first row, as this just shows the headers of the table. Obviously, this not a valid entry.
steam_db_table_reviews <- steam_db_table_reviews %>%
  slice(2:n()) %>%
# We also again, want to remove the entity "Steam", as this is the platform, and not an actual videogame.
  subset(name!="Steam") %>%
# Lets also remove the rank attribute. We dont need this, since we can just order the data ourselves by a given attribute later on.
  select(-"rank")

# Remove the "expand" column, as it is also useless information. We can use the select diplyr command to remove a specific column when using the '-' operator against the column name.

# Output dataframe for Step 1.
steam_db_table_reviews

## # A tibble: 138 x 5
##    appId  name              postiveReviews negativeReviews reviewPercentage
##    <chr>  <chr>             <chr>          <chr>           <chr>           
##  1 620    Portal 2          138,676        1,908           97.27%          
##  2 427520 Factorio          48,385         739             96.62%          
##  3 292030 The Witcher 3: W 204,306        4,859           96.48%          
##  4 400    Portal            51,956         1,087           96.14%          
##  5 10     Counter-Strike    124,925        3,355           96.01%          
##  6 105600 Terraria          257,205        7,843           95.94%          
##  7 250900 The Binding of I 73,100         1,854           95.91%          
##  8 294100 RimWorld          38,958         870             95.84%          
##  9 550    Left 4 Dead 2     253,068        8,466           95.67%          
## 10 252150 Grimm             27,943         639             95.59%          
## #  with 128 more rows
…
Before we can continue, lets clean up some of this data, by converting our attributes to correct types.

# Lets convert rows into numeric types.
steam_db_final <- steam_db_final %>% 
  type_convert(col_types = 
                 cols(appId.x = col_integer())) %>%
  type_convert(col_types = 
                 cols(maxConcurrentPlayers = col_integer())) %>%
  # Lets also redo our reviewPercentage column. We want this to be indicative of how much the game is recommended (positive reviews)
  mutate(reviewPercentage = postiveReviews/(negativeReviews+postiveReviews)) %>%
  as_tibble()

steam_db_final

## # A tibble: 12,233 x 12
##    name  appId.x currentPlayers `24hrPeakPlayer maxConcurrentPl appId.y
##    <chr>   <int>          <dbl>            <dbl>            <dbl>   <dbl>
##  1 - Ar  603780            188             3959             7979      NA
##  2 ::Ca      NA             NA               NA               NA      NA
##  3 !4RC      NA             NA               NA               NA      NA
##  4 .hac  525480             54               84             1989      NA
##  5 .pro      NA             NA               NA               NA      NA
##  6 '90s      NA             NA               NA               NA      NA
##  7 'n V      NA             NA               NA               NA      NA
##  8 [MAR      NA             NA               NA               NA      NA
##  9 #kil      NA             NA               NA               NA      NA
## 10 #mon  614910            120              127              189      NA
## #  with 12,223 more rows, and 6 more variables: postiveReviews <dbl>,
## #   negativeReviews <dbl>, reviewPercentage <dbl>, currentViewers <dbl>,
## #   `24hrPeakViewers` <dbl>, twitchSteamPlayers24hr <dbl>
…
While 12000 rows are great, many of these games dont even have valid appIds, due to being pulled from the Twitch table, which does not provide this information.

NA Values are frequent due to the Twitch table

Since the twitch table also had close to 12000 rows, a majority of these entities with missing data came from here.

We can keep these entities with NA values for now - but well go ahead and order the data such that it is in descending order from the number of positive reviews and its review percentage.

steam_db_final <- steam_db_final %>%
  arrange(desc(postiveReviews),desc(reviewPercentage), desc(maxConcurrentPlayers))

steam_db_final

## # A tibble: 12,233 x 12
##    name  appId.x currentPlayers `24hrPeakPlayer maxConcurrentPl appId.y
##    <chr>   <int>          <dbl>            <dbl>            <dbl>   <dbl>
##  1 Team     440          45206            45706           122938     440
##  2 Garr    4000          31476            32754            73863    4000
##  3 Terr  105600          20909            21880           159175  105600
##  4 Left     550           9517            16086           162399     550
##  5 The    72850          11684            11930           287411   72850
##  6 The   292030          11804            12289            92268  292030
##  7 Euro  227300          25458            25458            48356  227300
##  8 Port     620           1731             1832            98460     620
##  9 Sid     8930          23476            25278            91363    8930
## 10 Coun      10          14073            14458           319586      10
## #  with 12,223 more rows, and 6 more variables: postiveReviews <dbl>,
## #   negativeReviews <dbl>, reviewPercentage <dbl>, currentViewers <dbl>,
## #   `24hrPeakViewers` <dbl>, twitchSteamPlayers24hr <dbl>
…
Lets clean up the data slightly (columns need names)

steam_db_final_top500 <- steam_db_final_top500 %>%
  mutate(releaseDate = V12) %>%
  mutate(category = V13) %>%
  select(-V12, -V13)

steam_db_final_top500 <- steam_db_final_top500 %>%
  mutate(releaseDate = as.POSIXct(releaseDate,format="%Y-%m-%d")) %>%
  mutate(category = as.factor(category))

steam_db_final_top500

## # A tibble: 500 x 13
##    name  currentPlayers `24hrPeakPlayer maxConcurrentPl postiveReviews
##    <chr>          <dbl>            <dbl>            <dbl>          <dbl>
##  1 Team          44902            45706           122938         517345
##  2 Garr          32083            32754            73863         365209
##  3 Terr          21032            21880           159175         257205
##  4 Left           9545            16086           162399         253068
##  5 The           11707            11930           287411         237462
##  6 The           11695            12289            92268         204306
##  7 Euro          25390            25404            48356         177858
##  8 Port           1724             1832            98460         138676
##  9 Sid           23102            25278            91363         129190
## 10 Coun          14216            14463           319586         124925
## #  with 490 more rows, and 8 more variables: negativeReviews <dbl>,
## #   reviewPercentage <dbl>, currentViewers <dbl>, `24hrPeakViewers` <dbl>,
## #   twitchSteamPlayers24hr <dbl>, AppId <int>, releaseDate <dttm>,
## #   category <fct>
…
